<svg width="35" height="35" viewBox="0 0 35 35" fill="none" xmlns="http://www.w3.org/2000/svg">
<path d="M11.0118 1.16663H5.83366C3.25633 1.16663 1.16699 3.25596 1.16699 5.83329V10.5C1.16699 23.3866 11.6137 33.8333 24.5003 33.8333H29.167C31.7443 33.8333 33.8337 31.744 33.8337 29.1666V25.942C33.8337 25.0582 33.3343 24.2503 32.5438 23.855L26.9067 21.0365C25.6366 20.4014 24.0986 21.0385 23.6496 22.3856L22.9548 24.47C22.5047 25.8201 21.1197 26.6238 19.7242 26.3447C14.1387 25.2276 9.77266 20.8616 8.65555 15.2761C8.37644 13.8806 9.18018 12.4956 10.5303 12.0455L13.1171 11.1832C14.2738 10.7977 14.9386 9.58658 14.6429 8.40374L13.2755 2.93404C13.0158 1.89532 12.0825 1.16663 11.0118 1.16663Z" stroke="#461B11" stroke-width="2"/>
</svg>
