<svg width="20" height="21" viewBox="0 0 20 21" fill="none" xmlns="http://www.w3.org/2000/svg">
<path d="M14.0003 14.9731V18.9683C14.0003 19.7038 13.4034 20.3 12.667 20.3H2.00033C1.26395 20.3 0.666992 19.7038 0.666992 18.9683V8.31457C0.666992 7.57909 1.26395 6.98286 2.00033 6.98286H6.00033M6.00033 2.98772V13.6414C6.00033 14.3769 6.59728 14.9731 7.33366 14.9731H18.0003C18.7367 14.9731 19.3337 14.3769 19.3337 13.6414V2.98772C19.3337 2.25223 18.7367 1.65601 18.0003 1.65601H7.33366C6.59728 1.65601 6.00033 2.25223 6.00033 2.98772Z" stroke="white"/>
</svg>
