<svg width="30" height="30" viewBox="0 0 30 30" fill="none" xmlns="http://www.w3.org/2000/svg">
<path d="M22 7H24M9 1H21C25.4183 1 29 4.58172 29 9V21C29 25.4183 25.4183 29 21 29H9C4.58172 29 1 25.4183 1 21V9C1 4.58172 4.58172 1 9 1ZM15 21C11.6863 21 9 18.3137 9 15C9 11.6863 11.6863 9 15 9C18.3137 9 21 11.6863 21 15C21 18.3137 18.3137 21 15 21Z" stroke="#461B11" stroke-width="1.5"/>
</svg>
