<svg width="30" height="30" viewBox="0 0 30 30" fill="none" xmlns="http://www.w3.org/2000/svg">
<path d="M11.8808 8.11148L11.8812 8.11248C12.0781 8.55131 12.4043 9.3456 12.6644 9.97918L12.6695 9.99142C12.7722 10.2416 12.8649 10.4672 12.9371 10.6409C12.9733 10.7278 13.0035 10.7996 13.0268 10.8539C13.0497 10.9072 13.0601 10.9299 13.0617 10.9335C13.0619 10.934 13.062 10.9342 13.0619 10.934C13.2121 11.2331 13.3654 11.7178 13.0952 12.2713M11.8808 8.11148L12.4212 11.9423M11.8808 8.11148C11.6996 7.70939 11.4646 7.39208 11.1333 7.20008C10.8169 7.01666 10.5064 7.00896 10.3644 7.00544C10.3598 7.00533 10.3554 7.00522 10.3511 7.0051C10.1166 6.99742 9.84778 6.99742 9.59464 6.99742H9.58672C9.15534 6.99742 8.5268 7.15521 8.00542 7.71742C7.98723 7.73702 7.96647 7.75898 7.9404 7.78653L7.9404 7.78653M11.8808 8.11148L7.9404 7.78653M13.0952 12.2713L12.4212 11.9423M13.0952 12.2713C13.0953 12.2712 13.0953 12.2712 13.0953 12.2712L12.4212 11.9423M13.0952 12.2713C13.0813 12.2999 13.068 12.3274 13.0545 12.3556L13.0544 12.3556L13.0487 12.3676C12.946 12.5807 12.8376 12.8057 12.6011 13.0774L12.6009 13.0776C12.5383 13.1494 12.4717 13.2298 12.3978 13.3192L12.3843 13.3354C12.2711 13.4724 12.1309 13.6418 12.0001 13.7742M12.4212 11.9423C12.4064 11.9728 12.3923 12.002 12.3788 12.03C12.2776 12.24 12.2056 12.3895 12.0354 12.5849C11.9655 12.6652 11.8926 12.7533 11.82 12.841C11.6922 12.9954 11.5654 13.1487 11.4566 13.257C11.2637 13.4489 11.0633 13.6559 11.2859 14.0399M12.0001 13.7742C11.9745 13.7316 11.9526 13.6945 11.9346 13.6636C11.9216 13.641 11.9262 13.6426 11.9315 13.6654L11.8883 13.6904L11.8879 13.6907L11.2859 14.0399M12.0001 13.7742C11.9953 13.779 11.9906 13.7837 11.9859 13.7884L11.9855 13.7888C11.9614 13.8128 11.9441 13.8302 11.9288 13.8463C11.914 13.8619 11.9052 13.872 11.9 13.8784C11.8971 13.882 11.8959 13.8837 11.896 13.8837C11.8962 13.8834 11.907 13.8682 11.9177 13.8397C11.9253 13.8195 11.932 13.7948 11.9355 13.7667C11.9366 13.7578 11.9373 13.7491 11.9377 13.7407C11.9377 13.7405 11.9377 13.7402 11.9377 13.74C11.9385 13.722 11.9377 13.7051 11.9358 13.69C11.9346 13.6802 11.933 13.6721 11.9315 13.6656L11.8884 13.6906L11.8881 13.6908L11.2859 14.0399M12.0001 13.7742C12.2716 14.2248 12.9658 15.2856 13.9353 16.1447L13.9366 16.1458C15.0826 17.1662 16.0705 17.5924 16.5885 17.8159L16.5902 17.8166L16.6039 17.8225C16.6978 17.863 16.7996 17.9069 16.881 17.9475M11.2859 14.0399C11.5086 14.4239 12.2877 15.6868 13.4379 16.706L16.8318 18.0462L16.8318 18.0461L16.8431 18.0233C16.8353 18.0271 16.8284 18.031 16.8226 18.0346C16.8217 18.0351 16.8209 18.0356 16.8201 18.0361C16.8201 18.0361 16.8201 18.0361 16.8201 18.0361C16.7983 18.0499 16.7978 18.0558 16.817 18.0335L16.817 18.0334C16.8319 18.0162 16.8486 17.9967 16.8669 17.9754L16.8809 17.9474C16.8809 17.9474 16.8809 17.9474 16.881 17.9475M16.881 17.9475L16.8672 17.9751C16.8739 17.9673 16.8808 17.9592 16.888 17.9509M16.881 17.9475C16.8833 17.9486 16.8857 17.9498 16.888 17.9509M16.888 17.9509C17.1715 17.6205 17.7748 16.9105 17.9862 16.5994M16.888 17.9509L17.9862 16.5994M17.9862 16.5994C18.1928 16.287 18.4934 16.0314 18.9171 15.9815C19.2575 15.9414 19.5697 16.0579 19.7334 16.119L19.7401 16.1215L19.7401 16.1215C19.9593 16.2033 20.5642 16.4899 21.1128 16.754C21.683 17.0285 22.2573 17.3106 22.4536 17.4082L22.4536 17.4083C22.5243 17.4434 22.5908 17.4754 22.6574 17.5073L22.6757 17.5161C22.7947 17.5731 22.9378 17.6417 23.0599 17.7162C23.1874 17.7941 23.3751 17.9263 23.5063 18.1474L17.9862 16.5994ZM23.3458 20.6122L23.344 20.6173C23.0938 21.308 22.4408 21.8623 21.8837 22.2211C21.3171 22.5861 20.6265 22.8905 20.0973 22.9401C20.0414 22.9454 19.9841 22.9523 19.9134 22.9608C19.5535 23.0044 19.1029 23.0571 18.3446 22.9299C17.6139 22.8073 16.6141 22.5214 15.1146 21.9312C11.2594 20.4151 8.75212 16.7085 8.25143 15.9683L8.24295 15.9557L8.86414 15.5354L8.24295 15.9557L8.19692 15.8879L8.1844 15.8698L23.3458 20.6122ZM23.3458 20.6122C23.5269 20.1009 23.62 19.6209 23.6532 19.2331M23.3458 20.6122L23.6532 19.2331M7.9404 7.78653C7.49925 8.25276 6.45477 9.36227 6.45477 11.4403C6.45477 12.5412 6.84907 13.5821 7.23889 14.3525C7.63378 15.1329 8.05749 15.6999 8.17619 15.8587L8.17628 15.8588L8.17633 15.8589M7.9404 7.78653L8.17633 15.8589M23.6532 19.2331C23.6698 19.0399 23.6724 18.8583 23.6599 18.6994M23.6532 19.2331L23.6599 18.6994M23.6599 18.6994C23.6505 18.5805 23.6258 18.3488 23.5065 18.1476L23.6599 18.6994ZM8.17633 15.8589L8.18271 15.8674L8.17633 15.8589ZM8.27439 27.2724C8.10713 27.1818 7.91169 27.1582 7.72764 27.2062L1.06821 28.9457L2.84507 22.4959C2.89847 22.3021 2.87179 22.0949 2.77101 21.9209C1.52855 19.7756 0.87509 17.343 0.875978 14.8673V14.867C0.875978 7.08684 7.24458 0.75 15.0628 0.75C18.8641 0.75 22.4211 2.22246 25.1002 4.88894C27.7783 7.55463 29.2498 11.1004 29.2498 14.8744C29.2498 22.6544 22.8812 28.9913 15.0629 28.9913H15.0555C12.6801 28.9913 10.3467 28.3949 8.27439 27.2724Z" stroke="#461B11" stroke-width="1.5" stroke-linejoin="round"/>
</svg>
